{
    "atoms": [
        {
            "sybyl_type": "N.4"
        },
        {
            "sybyl_type": "H",
            "hb_donor": true
        },
        {
            "sybyl_type": "H",
            "hb_donor": true
        },
        {
            "sybyl_type": "H",
            "hb_donor": true
        },
        {
            "sybyl_type": "C.3"
        },
        {
            "sybyl_type": "C.3"
        },
        {
            "sybyl_type": "C.2"
        },
        {
            "sybyl_type": "O.2",
            "hb_acceptor": true
        },
        {
            "sybyl_type": "N.am"
        },
        {
            "sybyl_type": "H",
            "hb_donor": true
        },
        {
            "sybyl_type": "C.3"
        },
        {
            "sybyl_type": "C.3"
        },
        {
            "sybyl_type": "C.2"
        },
        {
            "sybyl_type": "O.co2",
            "hb_acceptor": true
        },
        {
            "sybyl_type": "O.co2",
            "hb_acceptor": true
        },
        {
            "sybyl_type": "N4"
        },
        {
            "sybyl_type": "H",
            "hb_donor": true
        },
        {
            "sybyl_type": "H",
            "hb_donor": true
        },
        {
            "sybyl_type": "H",
            "hb_donor": true
        },
        {
            "sybyl_type": "C.3"
        },
        {
            "sybyl_type": "C.3"
        },
        {
            "sybyl_type": "C.2"
        },
        {
            "sybyl_type": "O.2",
            "hb_acceptor": true
        },
        {
            "sybyl_type": "N.am"
        },
        {
            "sybyl_type": "H",
            "hb_donor": true
        },
        {
            "sybyl_type": "C.3"
        },
        {
            "sybyl_type": "C.3"
        },
        {
            "sybyl_type": "C.2"
        },
        {
            "sybyl_type": "O.co2",
            "hb_acceptor": true
        },
        {
            "sybyl_type": "O.co2",
            "hb_acceptor": true
        }
    ],
    "version": 1
}