{
    "angles": [
        {
            "atom1": 1,
            "atom2": 2,
            "atom3": 3,
            "spring_constant": 63.21,
            "theta": 110.63
        },
        {
            "atom1": 1,
            "atom2": 2,
            "atom3": 19,
            "spring_constant": 63.21,
            "theta": 110.63
        },
        {
            "atom1": 2,
            "atom2": 3,
            "atom3": 4,
            "spring_constant": 63.21,
            "theta": 110.63
        },
        {
            "atom1": 2,
            "atom2": 19,
            "atom3": 18,
            "spring_constant": 63.21,
            "theta": 110.63
        },
        {
            "atom1": 3,
            "atom2": 2,
            "atom3": 19,
            "spring_constant": 63.21,
            "theta": 110.63
        },
        {
            "atom1": 3,
            "atom2": 4,
            "atom3": 5,
            "spring_constant": 63.21,
            "theta": 110.63
        },
        {
            "atom1": 4,
            "atom2": 5,
            "atom3": 6,
            "spring_constant": 63.21,
            "theta": 110.63
        },
        {
            "atom1": 5,
            "atom2": 6,
            "atom3": 7,
            "spring_constant": 63.21,
            "theta": 110.63
        },
        {
            "atom1": 6,
            "atom2": 7,
            "atom3": 8,
            "spring_constant": 63.21,
            "theta": 110.63
        },
        {
            "atom1": 7,
            "atom2": 8,
            "atom3": 9,
            "spring_constant": 63.21,
            "theta": 110.63
        },
        {
            "atom1": 8,
            "atom2": 9,
            "atom3": 10,
            "spring_constant": 63.21,
            "theta": 110.63
        },
        {
            "atom1": 9,
            "atom2": 10,
            "atom3": 11,
            "spring_constant": 63.79,
            "theta": 110.53
        },
        {
            "atom1": 10,
            "atom2": 11,
            "atom3": 12,
            "spring_constant": 68.03,
            "theta": 123.11
        },
        {
            "atom1": 10,
            "atom2": 11,
            "atom3": 13,
            "spring_constant": 67.86,
            "theta": 115.15
        },
        {
            "atom1": 11,
            "atom2": 13,
            "atom3": 14,
            "spring_constant": 63.92,
            "theta": 121.35
        },
        {
            "atom1": 11,
            "atom2": 13,
            "atom3": 35,
            "spring_constant": 63.92,
            "theta": 121.35
        },
        {
            "atom1": 12,
            "atom2": 11,
            "atom3": 13,
            "spring_constant": 75.83,
            "theta": 122.03
        },
        {
            "atom1": 13,
            "atom2": 14,
            "atom3": 15,
            "spring_constant": 66.67,
            "theta": 111.56
        },
        {
            "atom1": 13,
            "atom2": 14,
            "atom3": 34,
            "spring_constant": 65.85,
            "theta": 112.13
        },
        {
            "atom1": 14,
            "atom2": 13,
            "atom3": 35,
            "spring_constant": 63.13,
            "theta": 115.56
        },
        {
            "atom1": 14,
            "atom2": 15,
            "atom3": 16,
            "spring_constant": 68.03,
            "theta": 123.11
        },
        {
            "atom1": 14,
            "atom2": 15,
            "atom3": 17,
            "spring_constant": 67.86,
            "theta": 115.15
        },
        {
            "atom1": 15,
            "atom2": 14,
            "atom3": 34,
            "spring_constant": 63.79,
            "theta": 110.53
        },
        {
            "atom1": 15,
            "atom2": 17,
            "atom3": 18,
            "spring_constant": 63.92,
            "theta": 121.35
        },
        {
            "atom1": 15,
            "atom2": 17,
            "atom3": 36,
            "spring_constant": 49.21,
            "theta": 118.46
        },
        {
            "atom1": 16,
            "atom2": 15,
            "atom3": 17,
            "spring_constant": 75.83,
            "theta": 122.03
        },
        {
            "atom1": 17,
            "atom2": 18,
            "atom3": 19,
            "spring_constant": 65.85,
            "theta": 112.13
        },
        {
            "atom1": 17,
            "atom2": 18,
            "atom3": 20,
            "spring_constant": 65.85,
            "theta": 112.13
        },
        {
            "atom1": 18,
            "atom2": 17,
            "atom3": 36,
            "spring_constant": 46.04,
            "theta": 116.78
        },
        {
            "atom1": 18,
            "atom2": 20,
            "atom3": 21,
            "spring_constant": 63.21,
            "theta": 110.63
        },
        {
            "atom1": 18,
            "atom2": 20,
            "atom3": 33,
            "spring_constant": 67.72,
            "theta": 109.43
        },
        {
            "atom1": 19,
            "atom2": 18,
            "atom3": 20,
            "spring_constant": 63.21,
            "theta": 110.63
        },
        {
            "atom1": 20,
            "atom2": 21,
            "atom3": 22,
            "spring_constant": 64.45,
            "theta": 114.32
        },
        {
            "atom1": 20,
            "atom2": 33,
            "atom3": 39,
            "spring_constant": 47.09,
            "theta": 108.16
        },
        {
            "atom1": 21,
            "atom2": 20,
            "atom3": 33,
            "spring_constant": 67.72,
            "theta": 109.43
        },
        {
            "atom1": 21,
            "atom2": 22,
            "atom3": 23,
            "spring_constant": 62.84,
            "theta": 110.64
        },
        {
            "atom1": 21,
            "atom2": 22,
            "atom3": 37,
            "spring_constant": 46.19,
            "theta": 110.11
        },
        {
            "atom1": 21,
            "atom2": 22,
            "atom3": 38,
            "spring_constant": 46.19,
            "theta": 110.11
        },
        {
            "atom1": 22,
            "atom2": 23,
            "atom3": 24,
            "spring_constant": 64.87,
            "theta": 114.54
        },
        {
            "atom1": 23,
            "atom2": 22,
            "atom3": 37,
            "spring_constant": 46.19,
            "theta": 110.11
        },
        {
            "atom1": 23,
            "atom2": 22,
            "atom3": 38,
            "spring_constant": 46.19,
            "theta": 110.11
        },
        {
            "atom1": 23,
            "atom2": 24,
            "atom3": 25,
            "spring_constant": 63.84,
            "theta": 120.63
        },
        {
            "atom1": 23,
            "atom2": 24,
            "atom3": 29,
            "spring_constant": 63.84,
            "theta": 120.63
        },
        {
            "atom1": 24,
            "atom2": 25,
            "atom3": 26,
            "spring_constant": 67.18,
            "theta": 119.97
        },
        {
            "atom1": 24,
            "atom2": 29,
            "atom3": 28,
            "spring_constant": 67.18,
            "theta": 119.97
        },
        {
            "atom1": 25,
            "atom2": 24,
            "atom3": 29,
            "spring_constant": 67.18,
            "theta": 119.97
        },
        {
            "atom1": 25,
            "atom2": 26,
            "atom3": 27,
            "spring_constant": 67.18,
            "theta": 119.97
        },
        {
            "atom1": 26,
            "atom2": 27,
            "atom3": 28,
            "spring_constant": 67.18,
            "theta": 119.97
        },
        {
            "atom1": 27,
            "atom2": 28,
            "atom3": 29,
            "spring_constant": 67.18,
            "theta": 119.97
        },
        {
            "atom1": 27,
            "atom2": 28,
            "atom3": 30,
            "spring_constant": 63.84,
            "theta": 120.63
        },
        {
            "atom1": 28,
            "atom2": 30,
            "atom3": 31,
            "spring_constant": 63.25,
            "theta": 112.09
        },
        {
            "atom1": 28,
            "atom2": 30,
            "atom3": 32,
            "spring_constant": 63.25,
            "theta": 112.09
        },
        {
            "atom1": 29,
            "atom2": 28,
            "atom3": 30,
            "spring_constant": 63.84,
            "theta": 120.63
        },
        {
            "atom1": 31,
            "atom2": 30,
            "atom3": 32,
            "spring_constant": 63.21,
            "theta": 110.63
        },
        {
            "atom1": 37,
            "atom2": 22,
            "atom3": 38,
            "spring_constant": 40.52,
            "theta": 108.11
        }
    ],
    "atoms": [
        {
            "ace_volume": 40.947,
            "acp_type": -1,
            "charge": 0.02,
            "element": "C",
            "eps": -0.1811,
            "eps03": -0.1,
            "ftype_index": 1,
            "ftype_name": "CH3E",
            "name": "C1",
            "radius": 2.165,
            "radius03": 1.76,
            "residue": "1",
            "segment": "X",
            "sybyl_type": "C.3",
            "x": 32.534,
            "y": 9.215,
            "z": 17.008
        },
        {
            "ace_volume": 12.257,
            "acp_type": -1,
            "charge": -0.014,
            "element": "C",
            "eps": -0.0486,
            "eps03": -0.1,
            "ftype_index": 2,
            "ftype_name": "CH1E",
            "name": "C2",
            "radius": 2.265,
            "radius03": 1.76,
            "residue": "1",
            "segment": "X",
            "sybyl_type": "C.3",
            "x": 31.589,
            "y": 8.645,
            "z": 15.94
        },
        {
            "ace_volume": 35.356,
            "acp_type": -1,
            "charge": 0.017,
            "element": "C",
            "eps": -0.1142,
            "eps03": -0.1,
            "ftype_index": 3,
            "ftype_name": "CH2E",
            "name": "C3",
            "radius": 2.235,
            "radius03": 1.76,
            "residue": "1",
            "segment": "X",
            "sybyl_type": "C.3",
            "x": 30.118,
            "y": 9.018,
            "z": 16.186
        },
        {
            "ace_volume": 35.356,
            "acp_type": -1,
            "charge": 0.009,
            "element": "C",
            "eps": -0.1142,
            "eps03": -0.1,
            "ftype_index": 3,
            "ftype_name": "CH2E",
            "name": "C4",
            "radius": 2.235,
            "radius03": 1.76,
            "residue": "1",
            "segment": "X",
            "sybyl_type": "C.3",
            "x": 29.829,
            "y": 10.499,
            "z": 16.496
        },
        {
            "ace_volume": 35.356,
            "acp_type": -1,
            "charge": 0.016,
            "element": "C",
            "eps": -0.1142,
            "eps03": -0.1,
            "ftype_index": 3,
            "ftype_name": "CH2E",
            "name": "C5",
            "radius": 2.235,
            "radius03": 1.76,
            "residue": "1",
            "segment": "X",
            "sybyl_type": "C.3",
            "x": 29.576,
            "y": 10.76,
            "z": 17.989
        },
        {
            "ace_volume": 35.356,
            "acp_type": -1,
            "charge": -0.012,
            "element": "C",
            "eps": -0.1142,
            "eps03": -0.1,
            "ftype_index": 3,
            "ftype_name": "CH2E",
            "name": "C6",
            "radius": 2.235,
            "radius03": 1.76,
            "residue": "1",
            "segment": "X",
            "sybyl_type": "C.3",
            "x": 28.244,
            "y": 10.147,
            "z": 18.435
        },
        {
            "ace_volume": 35.356,
            "acp_type": -1,
            "charge": 0.014,
            "element": "C",
            "eps": -0.1142,
            "eps03": -0.1,
            "ftype_index": 3,
            "ftype_name": "CH2E",
            "name": "C7",
            "radius": 2.235,
            "radius03": 1.76,
            "residue": "1",
            "segment": "X",
            "sybyl_type": "C.3",
            "x": 28.163,
            "y": 9.905,
            "z": 19.94
        },
        {
            "ace_volume": 35.356,
            "acp_type": -1,
            "charge": 0.014,
            "element": "C",
            "eps": -0.1142,
            "eps03": -0.1,
            "ftype_index": 3,
            "ftype_name": "CH2E",
            "name": "C8",
            "radius": 2.235,
            "radius03": 1.76,
            "residue": "1",
            "segment": "X",
            "sybyl_type": "C.3",
            "x": 26.963,
            "y": 9.037,
            "z": 20.359
        },
        {
            "ace_volume": 35.356,
            "acp_type": -1,
            "charge": 0.047,
            "element": "C",
            "eps": -0.1142,
            "eps03": -0.1,
            "ftype_index": 3,
            "ftype_name": "CH2E",
            "name": "C9",
            "radius": 2.235,
            "radius03": 1.76,
            "residue": "1",
            "segment": "X",
            "sybyl_type": "C.3",
            "x": 27.014,
            "y": 7.595,
            "z": 19.817
        },
        {
            "ace_volume": 35.356,
            "acp_type": -1,
            "charge": 0.007,
            "element": "C",
            "eps": -0.1142,
            "eps03": -0.1,
            "ftype_index": 3,
            "ftype_name": "CH2E",
            "name": "C10",
            "radius": 2.235,
            "radius03": 1.76,
            "residue": "1",
            "segment": "X",
            "sybyl_type": "C.3",
            "x": 26.312,
            "y": 7.425,
            "z": 18.459
        },
        {
            "ace_volume": 12.403,
            "acp_type": -1,
            "charge": 0.6671,
            "element": "C",
            "eps": -0.141,
            "eps03": -0.141,
            "ftype_index": 4,
            "ftype_name": "C",
            "name": "C11",
            "radius": 1.87,
            "radius03": 1.87,
            "residue": "1",
            "segment": "X",
            "sybyl_type": "C.2",
            "x": 27.044,
            "y": 6.477,
            "z": 17.505
        },
        {
            "ace_volume": 14.375,
            "acp_type": -1,
            "charge": -0.6321,
            "element": "O",
            "eps": -0.1591,
            "eps03": -0.2,
            "ftype_index": 5,
            "ftype_name": "O",
            "hb_acceptor": true,
            "name": "O1",
            "radius": 1.55,
            "radius03": 1.36,
            "residue": "1",
            "segment": "X",
            "sybyl_type": "O.2",
            "x": 27.969,
            "y": 5.757,
            "yeti_type": "carbonyl",
            "z": 17.886
        },
        {
            "ace_volume": 1.879,
            "acp_type": -1,
            "charge": -0.4838,
            "element": "N",
            "eps": -0.09,
            "eps03": -0.1,
            "ftype_index": 6,
            "ftype_name": "NP",
            "name": "N1",
            "radius": 1.83,
            "radius03": 1.63,
            "residue": "1",
            "segment": "X",
            "sybyl_type": "N.am",
            "x": 26.579,
            "y": 6.42,
            "z": 16.187
        },
        {
            "ace_volume": 12.257,
            "acp_type": -1,
            "charge": 0.1464,
            "element": "C",
            "eps": -0.0486,
            "eps03": -0.1,
            "ftype_index": 2,
            "ftype_name": "CH1E",
            "name": "C12",
            "radius": 2.265,
            "radius03": 1.76,
            "residue": "1",
            "segment": "X",
            "sybyl_type": "C.3",
            "x": 27.218,
            "y": 5.43,
            "z": 15.293
        },
        {
            "ace_volume": 12.403,
            "acp_type": -1,
            "charge": 0.6421,
            "element": "C",
            "eps": -0.141,
            "eps03": -0.141,
            "ftype_index": 4,
            "ftype_name": "C",
            "name": "C13",
            "radius": 1.87,
            "radius03": 1.87,
            "residue": "1",
            "segment": "X",
            "sybyl_type": "C.2",
            "x": 28.473,
            "y": 5.994,
            "z": 14.585
        },
        {
            "ace_volume": 14.375,
            "acp_type": -1,
            "charge": -0.6511,
            "element": "O",
            "eps": -0.1591,
            "eps03": -0.2,
            "ftype_index": 5,
            "ftype_name": "O",
            "hb_acceptor": true,
            "name": "O2",
            "radius": 1.55,
            "radius03": 1.36,
            "residue": "1",
            "segment": "X",
            "sybyl_type": "O.2",
            "x": 28.486,
            "y": 6.312,
            "yeti_type": "carbonyl",
            "z": 13.398
        },
        {
            "ace_volume": 1.879,
            "acp_type": -1,
            "charge": -0.5659,
            "element": "N",
            "eps": -0.09,
            "eps03": -0.1,
            "ftype_index": 6,
            "ftype_name": "NP",
            "name": "N2",
            "radius": 1.83,
            "radius03": 1.63,
            "residue": "1",
            "segment": "X",
            "sybyl_type": "N.am",
            "x": 29.59,
            "y": 6.087,
            "z": 15.395
        },
        {
            "ace_volume": 12.257,
            "acp_type": -1,
            "charge": 0.1604,
            "element": "C",
            "eps": -0.0486,
            "eps03": -0.1,
            "ftype_index": 2,
            "ftype_name": "CH1E",
            "name": "C14",
            "radius": 2.265,
            "radius03": 1.76,
            "residue": "1",
            "segment": "X",
            "sybyl_type": "C.3",
            "x": 30.939,
            "y": 6.329,
            "z": 14.859
        },
        {
            "ace_volume": 35.356,
            "acp_type": -1,
            "charge": 0.034,
            "element": "C",
            "eps": -0.1142,
            "eps03": -0.1,
            "ftype_index": 3,
            "ftype_name": "CH2E",
            "name": "C15",
            "radius": 2.235,
            "radius03": 1.76,
            "residue": "1",
            "segment": "X",
            "sybyl_type": "C.3",
            "x": 31.798,
            "y": 7.108,
            "z": 15.887
        },
        {
            "ace_volume": 12.257,
            "acp_type": -1,
            "charge": 0.1978,
            "element": "C",
            "eps": -0.0486,
            "eps03": -0.1,
            "ftype_index": 2,
            "ftype_name": "CH1E",
            "name": "C16",
            "radius": 2.265,
            "radius03": 1.76,
            "residue": "1",
            "segment": "X",
            "sybyl_type": "C.3",
            "x": 31.642,
            "y": 4.983,
            "z": 14.501
        },
        {
            "ace_volume": 35.356,
            "acp_type": -1,
            "charge": 0.3112,
            "element": "C",
            "eps": -0.1142,
            "eps03": -0.1,
            "ftype_index": 3,
            "ftype_name": "CH2E",
            "name": "C17",
            "radius": 2.235,
            "radius03": 1.76,
            "residue": "1",
            "segment": "X",
            "sybyl_type": "C.3",
            "x": 30.878,
            "y": 4.116,
            "z": 13.475
        },
        {
            "ace_volume": 15.521,
            "acp_type": -1,
            "charge": -0.759,
            "element": "N",
            "eps": -0.15,
            "eps03": -0.15,
            "ftype_index": 7,
            "ftype_name": "NT",
            "name": "N3",
            "radius": 1.65,
            "radius03": 1.65,
            "residue": "1",
            "segment": "X",
            "sybyl_type": "N.4",
            "x": 31.695,
            "y": 2.924,
            "z": 13.15
        },
        {
            "ace_volume": 35.356,
            "acp_type": -1,
            "charge": 0.3835,
            "element": "C",
            "eps": -0.1142,
            "eps03": -0.1,
            "ftype_index": 3,
            "ftype_name": "CH2E",
            "name": "C18",
            "radius": 2.235,
            "radius03": 1.76,
            "residue": "1",
            "segment": "X",
            "sybyl_type": "C.3",
            "x": 30.982,
            "y": 2.017,
            "z": 12.244
        },
        {
            "ace_volume": 12.403,
            "acp_type": -1,
            "charge": -0.1833,
            "element": "C",
            "eps": -0.05,
            "eps03": -0.1,
            "ftype_index": 8,
            "ftype_name": "C6R",
            "name": "C19",
            "radius": 2.04,
            "radius03": 1.76,
            "residue": "1",
            "segment": "X",
            "sybyl_type": "C.ar",
            "x": 30.892,
            "y": 2.531,
            "z": 10.829
        },
        {
            "ace_volume": 18.583,
            "acp_type": -1,
            "charge": 0.049,
            "element": "C",
            "eps": -0.0903,
            "eps03": -0.1,
            "ftype_index": 9,
            "ftype_name": "C6RE",
            "name": "C20",
            "radius": 1.99,
            "radius03": 1.99,
            "residue": "1",
            "segment": "X",
            "sybyl_type": "C.ar",
            "x": 29.657,
            "y": 2.866,
            "z": 10.264
        },
        {
            "ace_volume": 18.583,
            "acp_type": -1,
            "charge": 0.036,
            "element": "C",
            "eps": -0.0903,
            "eps03": -0.1,
            "ftype_index": 9,
            "ftype_name": "C6RE",
            "name": "C21",
            "radius": 1.99,
            "radius03": 1.99,
            "residue": "1",
            "segment": "X",
            "sybyl_type": "C.ar",
            "x": 29.583,
            "y": 3.33,
            "z": 8.951
        },
        {
            "ace_volume": 18.583,
            "acp_type": -1,
            "charge": 0.07,
            "element": "C",
            "eps": -0.0903,
            "eps03": -0.1,
            "ftype_index": 9,
            "ftype_name": "C6RE",
            "name": "C22",
            "radius": 1.99,
            "radius03": 1.99,
            "residue": "1",
            "segment": "X",
            "sybyl_type": "C.ar",
            "x": 30.745,
            "y": 3.47,
            "z": 8.193
        },
        {
            "ace_volume": 12.403,
            "acp_type": -1,
            "charge": -0.0593,
            "element": "C",
            "eps": -0.05,
            "eps03": -0.1,
            "ftype_index": 8,
            "ftype_name": "C6R",
            "name": "C23",
            "radius": 2.04,
            "radius03": 1.76,
            "residue": "1",
            "segment": "X",
            "sybyl_type": "C.ar",
            "x": 31.998,
            "y": 3.149,
            "z": 8.734
        },
        {
            "ace_volume": 18.583,
            "acp_type": -1,
            "charge": 0.036,
            "element": "C",
            "eps": -0.0903,
            "eps03": -0.1,
            "ftype_index": 9,
            "ftype_name": "C6RE",
            "name": "C24",
            "radius": 1.99,
            "radius03": 1.99,
            "residue": "1",
            "segment": "X",
            "sybyl_type": "C.ar",
            "x": 32.055,
            "y": 2.672,
            "z": 10.053
        },
        {
            "ace_volume": 12.257,
            "acp_type": -1,
            "charge": 0.0343,
            "element": "C",
            "eps": -0.0486,
            "eps03": -0.1,
            "ftype_index": 2,
            "ftype_name": "CH1E",
            "name": "C25",
            "radius": 2.265,
            "radius03": 1.76,
            "residue": "1",
            "segment": "X",
            "sybyl_type": "C.3",
            "x": 33.243,
            "y": 3.296,
            "z": 7.878
        },
        {
            "ace_volume": 40.947,
            "acp_type": -1,
            "charge": 0.036001,
            "element": "C",
            "eps": -0.1811,
            "eps03": -0.1,
            "ftype_index": 1,
            "ftype_name": "CH3E",
            "name": "C26",
            "radius": 2.165,
            "radius03": 1.76,
            "residue": "1",
            "segment": "X",
            "sybyl_type": "C.3",
            "x": 34.396,
            "y": 3.988,
            "z": 8.611
        },
        {
            "ace_volume": 40.947,
            "acp_type": -1,
            "charge": 0.036001,
            "element": "C",
            "eps": -0.1811,
            "eps03": -0.1,
            "ftype_index": 1,
            "ftype_name": "CH3E",
            "name": "C27",
            "radius": 2.165,
            "radius03": 1.76,
            "residue": "1",
            "segment": "X",
            "sybyl_type": "C.3",
            "x": 33.687,
            "y": 1.936,
            "z": 7.335
        },
        {
            "ace_volume": 21.427,
            "acp_type": -1,
            "charge": -0.6148,
            "element": "O",
            "eps": -0.1521,
            "eps03": -0.2,
            "ftype_index": 10,
            "ftype_name": "OT",
            "hb_acceptor": true,
            "name": "O3",
            "radius": 1.55,
            "radius03": 1.48,
            "residue": "1",
            "segment": "X",
            "sybyl_type": "O.3",
            "x": 32.952,
            "y": 5.233,
            "yeti_type": "hydroxyl",
            "z": 13.965
        },
        {
            "ace_volume": 40.947,
            "acp_type": -1,
            "charge": 0.076,
            "element": "C",
            "eps": -0.1811,
            "eps03": -0.1,
            "ftype_index": 1,
            "ftype_name": "CH3E",
            "name": "C28",
            "radius": 2.165,
            "radius03": 1.76,
            "residue": "1",
            "segment": "X",
            "sybyl_type": "C.3",
            "x": 26.247,
            "y": 4.832,
            "z": 14.272
        },
        {
            "ace_volume": 40.947,
            "acp_type": -1,
            "charge": 0.227399,
            "element": "C",
            "eps": -0.1811,
            "eps03": -0.1,
            "ftype_index": 1,
            "ftype_name": "CH3E",
            "name": "C29",
            "radius": 2.165,
            "radius03": 1.76,
            "residue": "1",
            "segment": "X",
            "sybyl_type": "C.3",
            "x": 25.901,
            "y": 7.553,
            "z": 15.565
        },
        {
            "ace_volume": 0.31,
            "acp_type": -1,
            "charge": 0.3555,
            "element": "H",
            "eps": -0.0498,
            "eps03": -0.0498,
            "ftype_index": 11,
            "ftype_name": "H",
            "hb_donor": true,
            "name": "H22",
            "radius": 0.8,
            "radius03": 0.8,
            "residue": "1",
            "segment": "X",
            "sybyl_type": "H",
            "x": 29.478,
            "y": 5.988,
            "z": 16.368
        },
        {
            "ace_volume": 0.31,
            "acp_type": -1,
            "charge": 0.4518,
            "element": "H",
            "eps": -0.0498,
            "eps03": -0.0498,
            "ftype_index": 11,
            "ftype_name": "H",
            "hb_donor": true,
            "name": "H29",
            "radius": 0.8,
            "radius03": 0.8,
            "residue": "1",
            "segment": "X",
            "sybyl_type": "H",
            "x": 31.914,
            "y": 2.426,
            "z": 14.014
        },
        {
            "ace_volume": 0.31,
            "acp_type": -1,
            "charge": 0.4518,
            "element": "H",
            "eps": -0.0498,
            "eps03": -0.0498,
            "ftype_index": 11,
            "ftype_name": "H",
            "hb_donor": true,
            "name": "H30",
            "radius": 0.8,
            "radius03": 0.8,
            "residue": "1",
            "segment": "X",
            "sybyl_type": "H",
            "x": 32.548,
            "y": 3.236,
            "z": 12.686
        },
        {
            "ace_volume": 0.44,
            "acp_type": -1,
            "charge": 0.433,
            "element": "H",
            "eps": -0.0498,
            "eps03": -0.0498,
            "ftype_index": 12,
            "ftype_name": "HO",
            "hb_donor": true,
            "name": "H44",
            "radius": 0.76,
            "radius03": 0.76,
            "residue": "1",
            "segment": "X",
            "sybyl_type": "H",
            "x": 32.873,
            "y": 5.726,
            "z": 13.133
        }
    ],
    "bonds": [
        {
            "atom1": 1,
            "atom2": 2,
            "length": 1.535,
            "sdf_type": 1,
            "spring_constant": 303.1
        },
        {
            "atom1": 2,
            "atom2": 3,
            "length": 1.535,
            "sdf_type": 1,
            "spring_constant": 303.1
        },
        {
            "atom1": 2,
            "atom2": 19,
            "length": 1.535,
            "sdf_type": 1,
            "spring_constant": 303.1
        },
        {
            "atom1": 3,
            "atom2": 4,
            "length": 1.535,
            "sdf_type": 1,
            "spring_constant": 303.1
        },
        {
            "atom1": 4,
            "atom2": 5,
            "length": 1.535,
            "sdf_type": 1,
            "spring_constant": 303.1
        },
        {
            "atom1": 5,
            "atom2": 6,
            "length": 1.535,
            "sdf_type": 1,
            "spring_constant": 303.1
        },
        {
            "atom1": 6,
            "atom2": 7,
            "length": 1.535,
            "sdf_type": 1,
            "spring_constant": 303.1
        },
        {
            "atom1": 7,
            "atom2": 8,
            "length": 1.535,
            "sdf_type": 1,
            "spring_constant": 303.1
        },
        {
            "atom1": 8,
            "atom2": 9,
            "length": 1.535,
            "sdf_type": 1,
            "spring_constant": 303.1
        },
        {
            "atom1": 9,
            "atom2": 10,
            "length": 1.535,
            "sdf_type": 1,
            "spring_constant": 303.1
        },
        {
            "atom1": 10,
            "atom2": 11,
            "length": 1.508,
            "sdf_type": 1,
            "spring_constant": 328.3
        },
        {
            "atom1": 11,
            "atom2": 12,
            "length": 1.214,
            "sdf_type": 2,
            "spring_constant": 648.0
        },
        {
            "atom1": 11,
            "atom2": 13,
            "length": 1.345,
            "sdf_type": 1,
            "spring_constant": 478.2
        },
        {
            "atom1": 13,
            "atom2": 14,
            "length": 1.46,
            "sdf_type": 1,
            "spring_constant": 330.6
        },
        {
            "atom1": 13,
            "atom2": 35,
            "length": 1.46,
            "sdf_type": 1,
            "spring_constant": 330.6
        },
        {
            "atom1": 14,
            "atom2": 15,
            "length": 1.508,
            "sdf_type": 1,
            "spring_constant": 328.3
        },
        {
            "atom1": 14,
            "atom2": 34,
            "length": 1.535,
            "sdf_type": 1,
            "spring_constant": 303.1
        },
        {
            "atom1": 15,
            "atom2": 16,
            "length": 1.214,
            "sdf_type": 2,
            "spring_constant": 648.0
        },
        {
            "atom1": 15,
            "atom2": 17,
            "length": 1.345,
            "sdf_type": 1,
            "spring_constant": 478.2
        },
        {
            "atom1": 17,
            "atom2": 18,
            "length": 1.46,
            "sdf_type": 1,
            "spring_constant": 330.6
        },
        {
            "atom1": 17,
            "atom2": 36,
            "length": 1.009,
            "sdf_type": 1,
            "spring_constant": 410.2
        },
        {
            "atom1": 18,
            "atom2": 19,
            "length": 1.535,
            "sdf_type": 1,
            "spring_constant": 303.1
        },
        {
            "atom1": 18,
            "atom2": 20,
            "length": 1.535,
            "sdf_type": 1,
            "spring_constant": 303.1
        },
        {
            "atom1": 20,
            "atom2": 21,
            "length": 1.535,
            "sdf_type": 1,
            "spring_constant": 303.1
        },
        {
            "atom1": 20,
            "atom2": 33,
            "length": 1.426,
            "sdf_type": 1,
            "spring_constant": 314.1
        },
        {
            "atom1": 21,
            "atom2": 22,
            "length": 1.499,
            "sdf_type": 1,
            "spring_constant": 293.6
        },
        {
            "atom1": 22,
            "atom2": 23,
            "length": 1.499,
            "sdf_type": 1,
            "spring_constant": 293.6
        },
        {
            "atom1": 22,
            "atom2": 37,
            "length": 1.033,
            "sdf_type": 1,
            "spring_constant": 369.0
        },
        {
            "atom1": 22,
            "atom2": 38,
            "length": 1.033,
            "sdf_type": 1,
            "spring_constant": 369.0
        },
        {
            "atom1": 23,
            "atom2": 24,
            "length": 1.513,
            "sdf_type": 1,
            "spring_constant": 323.5
        },
        {
            "atom1": 24,
            "atom2": 25,
            "length": 1.387,
            "sdf_type": 2,
            "spring_constant": 478.4
        },
        {
            "atom1": 24,
            "atom2": 29,
            "length": 1.387,
            "sdf_type": 1,
            "spring_constant": 478.4
        },
        {
            "atom1": 25,
            "atom2": 26,
            "length": 1.387,
            "sdf_type": 1,
            "spring_constant": 478.4
        },
        {
            "atom1": 26,
            "atom2": 27,
            "length": 1.387,
            "sdf_type": 2,
            "spring_constant": 478.4
        },
        {
            "atom1": 27,
            "atom2": 28,
            "length": 1.387,
            "sdf_type": 1,
            "spring_constant": 478.4
        },
        {
            "atom1": 28,
            "atom2": 29,
            "length": 1.387,
            "sdf_type": 2,
            "spring_constant": 478.4
        },
        {
            "atom1": 28,
            "atom2": 30,
            "length": 1.513,
            "sdf_type": 1,
            "spring_constant": 323.5
        },
        {
            "atom1": 30,
            "atom2": 31,
            "length": 1.535,
            "sdf_type": 1,
            "spring_constant": 303.1
        },
        {
            "atom1": 30,
            "atom2": 32,
            "length": 1.535,
            "sdf_type": 1,
            "spring_constant": 303.1
        },
        {
            "atom1": 33,
            "atom2": 39,
            "length": 0.974,
            "sdf_type": 1,
            "spring_constant": 369.6
        }
    ],
    "impropers": [
        {
            "atom1": 10,
            "atom2": 13,
            "atom3": 11,
            "atom4": 12,
            "phi": 180.0,
            "spring_constant": 1050.0
        },
        {
            "atom1": 11,
            "atom2": 14,
            "atom3": 13,
            "atom4": 35,
            "phi": 180.0,
            "spring_constant": 110.00000000000001
        },
        {
            "atom1": 14,
            "atom2": 17,
            "atom3": 15,
            "atom4": 16,
            "phi": 180.0,
            "spring_constant": 1050.0
        },
        {
            "atom1": 15,
            "atom2": 18,
            "atom3": 17,
            "atom4": 36,
            "phi": 180.0,
            "spring_constant": 110.00000000000001
        },
        {
            "atom1": 23,
            "atom2": 25,
            "atom3": 24,
            "atom4": 29,
            "phi": 180.0,
            "spring_constant": 110.00000000000001
        },
        {
            "atom1": 30,
            "atom2": 29,
            "atom3": 28,
            "atom4": 27,
            "phi": 180.0,
            "spring_constant": 110.00000000000001
        }
    ],
    "torsions": [
        {
            "atom1": 1,
            "atom2": 2,
            "atom3": 3,
            "atom4": 4,
            "delta_constant": 0.0,
            "minima": 3,
            "spring_constant": 0.18
        },
        {
            "atom1": 1,
            "atom2": 2,
            "atom3": 3,
            "atom4": 4,
            "delta_constant": 180.0,
            "minima": 2,
            "spring_constant": 0.25
        },
        {
            "atom1": 1,
            "atom2": 2,
            "atom3": 3,
            "atom4": 4,
            "delta_constant": 180.0,
            "minima": 1,
            "spring_constant": 0.2
        },
        {
            "atom1": 19,
            "atom2": 2,
            "atom3": 3,
            "atom4": 4,
            "delta_constant": 0.0,
            "minima": 3,
            "spring_constant": 0.18
        },
        {
            "atom1": 19,
            "atom2": 2,
            "atom3": 3,
            "atom4": 4,
            "delta_constant": 180.0,
            "minima": 2,
            "spring_constant": 0.25
        },
        {
            "atom1": 19,
            "atom2": 2,
            "atom3": 3,
            "atom4": 4,
            "delta_constant": 180.0,
            "minima": 1,
            "spring_constant": 0.2
        },
        {
            "atom1": 1,
            "atom2": 2,
            "atom3": 19,
            "atom4": 18,
            "delta_constant": 0.0,
            "minima": 3,
            "spring_constant": 0.18
        },
        {
            "atom1": 1,
            "atom2": 2,
            "atom3": 19,
            "atom4": 18,
            "delta_constant": 180.0,
            "minima": 2,
            "spring_constant": 0.25
        },
        {
            "atom1": 1,
            "atom2": 2,
            "atom3": 19,
            "atom4": 18,
            "delta_constant": 180.0,
            "minima": 1,
            "spring_constant": 0.2
        },
        {
            "atom1": 3,
            "atom2": 2,
            "atom3": 19,
            "atom4": 18,
            "delta_constant": 0.0,
            "minima": 3,
            "spring_constant": 0.18
        },
        {
            "atom1": 3,
            "atom2": 2,
            "atom3": 19,
            "atom4": 18,
            "delta_constant": 180.0,
            "minima": 2,
            "spring_constant": 0.25
        },
        {
            "atom1": 3,
            "atom2": 2,
            "atom3": 19,
            "atom4": 18,
            "delta_constant": 180.0,
            "minima": 1,
            "spring_constant": 0.2
        },
        {
            "atom1": 2,
            "atom2": 3,
            "atom3": 4,
            "atom4": 5,
            "delta_constant": 0.0,
            "minima": 3,
            "spring_constant": 0.18
        },
        {
            "atom1": 2,
            "atom2": 3,
            "atom3": 4,
            "atom4": 5,
            "delta_constant": 180.0,
            "minima": 2,
            "spring_constant": 0.25
        },
        {
            "atom1": 2,
            "atom2": 3,
            "atom3": 4,
            "atom4": 5,
            "delta_constant": 180.0,
            "minima": 1,
            "spring_constant": 0.2
        },
        {
            "atom1": 3,
            "atom2": 4,
            "atom3": 5,
            "atom4": 6,
            "delta_constant": 0.0,
            "minima": 3,
            "spring_constant": 0.18
        },
        {
            "atom1": 3,
            "atom2": 4,
            "atom3": 5,
            "atom4": 6,
            "delta_constant": 180.0,
            "minima": 2,
            "spring_constant": 0.25
        },
        {
            "atom1": 3,
            "atom2": 4,
            "atom3": 5,
            "atom4": 6,
            "delta_constant": 180.0,
            "minima": 1,
            "spring_constant": 0.2
        },
        {
            "atom1": 4,
            "atom2": 5,
            "atom3": 6,
            "atom4": 7,
            "delta_constant": 0.0,
            "minima": 3,
            "spring_constant": 0.18
        },
        {
            "atom1": 4,
            "atom2": 5,
            "atom3": 6,
            "atom4": 7,
            "delta_constant": 180.0,
            "minima": 2,
            "spring_constant": 0.25
        },
        {
            "atom1": 4,
            "atom2": 5,
            "atom3": 6,
            "atom4": 7,
            "delta_constant": 180.0,
            "minima": 1,
            "spring_constant": 0.2
        },
        {
            "atom1": 5,
            "atom2": 6,
            "atom3": 7,
            "atom4": 8,
            "delta_constant": 0.0,
            "minima": 3,
            "spring_constant": 0.18
        },
        {
            "atom1": 5,
            "atom2": 6,
            "atom3": 7,
            "atom4": 8,
            "delta_constant": 180.0,
            "minima": 2,
            "spring_constant": 0.25
        },
        {
            "atom1": 5,
            "atom2": 6,
            "atom3": 7,
            "atom4": 8,
            "delta_constant": 180.0,
            "minima": 1,
            "spring_constant": 0.2
        },
        {
            "atom1": 6,
            "atom2": 7,
            "atom3": 8,
            "atom4": 9,
            "delta_constant": 0.0,
            "minima": 3,
            "spring_constant": 0.18
        },
        {
            "atom1": 6,
            "atom2": 7,
            "atom3": 8,
            "atom4": 9,
            "delta_constant": 180.0,
            "minima": 2,
            "spring_constant": 0.25
        },
        {
            "atom1": 6,
            "atom2": 7,
            "atom3": 8,
            "atom4": 9,
            "delta_constant": 180.0,
            "minima": 1,
            "spring_constant": 0.2
        },
        {
            "atom1": 7,
            "atom2": 8,
            "atom3": 9,
            "atom4": 10,
            "delta_constant": 0.0,
            "minima": 3,
            "spring_constant": 0.18
        },
        {
            "atom1": 7,
            "atom2": 8,
            "atom3": 9,
            "atom4": 10,
            "delta_constant": 180.0,
            "minima": 2,
            "spring_constant": 0.25
        },
        {
            "atom1": 7,
            "atom2": 8,
            "atom3": 9,
            "atom4": 10,
            "delta_constant": 180.0,
            "minima": 1,
            "spring_constant": 0.2
        },
        {
            "atom1": 8,
            "atom2": 9,
            "atom3": 10,
            "atom4": 11,
            "delta_constant": 0.0,
            "minima": 3,
            "spring_constant": 0.156
        },
        {
            "atom1": 9,
            "atom2": 10,
            "atom3": 11,
            "atom4": 13,
            "delta_constant": 0.0,
            "minima": 4,
            "spring_constant": 0.1
        },
        {
            "atom1": 9,
            "atom2": 10,
            "atom3": 11,
            "atom4": 13,
            "delta_constant": 0.0,
            "minima": 2,
            "spring_constant": 0.07
        },
        {
            "atom1": 10,
            "atom2": 11,
            "atom3": 13,
            "atom4": 14,
            "delta_constant": 180.0,
            "minima": 2,
            "spring_constant": 2.5
        },
        {
            "atom1": 12,
            "atom2": 11,
            "atom3": 13,
            "atom4": 14,
            "delta_constant": 180.0,
            "minima": 2,
            "spring_constant": 2.5
        },
        {
            "atom1": 10,
            "atom2": 11,
            "atom3": 13,
            "atom4": 35,
            "delta_constant": 180.0,
            "minima": 2,
            "spring_constant": 2.5
        },
        {
            "atom1": 12,
            "atom2": 11,
            "atom3": 13,
            "atom4": 35,
            "delta_constant": 180.0,
            "minima": 2,
            "spring_constant": 2.5
        },
        {
            "atom1": 11,
            "atom2": 13,
            "atom3": 14,
            "atom4": 15,
            "delta_constant": 180.0,
            "minima": 2,
            "spring_constant": 0.85
        },
        {
            "atom1": 11,
            "atom2": 13,
            "atom3": 14,
            "atom4": 15,
            "delta_constant": 0.0,
            "minima": 1,
            "spring_constant": 0.8
        },
        {
            "atom1": 11,
            "atom2": 13,
            "atom3": 14,
            "atom4": 34,
            "delta_constant": 180.0,
            "minima": 4,
            "spring_constant": 0.5
        },
        {
            "atom1": 11,
            "atom2": 13,
            "atom3": 14,
            "atom4": 34,
            "delta_constant": 180.0,
            "minima": 3,
            "spring_constant": 0.15
        },
        {
            "atom1": 11,
            "atom2": 13,
            "atom3": 14,
            "atom4": 34,
            "delta_constant": 0.0,
            "minima": 1,
            "spring_constant": 0.53
        },
        {
            "atom1": 13,
            "atom2": 14,
            "atom3": 15,
            "atom4": 17,
            "delta_constant": 180.0,
            "minima": 1,
            "spring_constant": 1.7
        },
        {
            "atom1": 13,
            "atom2": 14,
            "atom3": 15,
            "atom4": 17,
            "delta_constant": 180.0,
            "minima": 2,
            "spring_constant": 2.0
        },
        {
            "atom1": 34,
            "atom2": 14,
            "atom3": 15,
            "atom4": 17,
            "delta_constant": 0.0,
            "minima": 4,
            "spring_constant": 0.1
        },
        {
            "atom1": 34,
            "atom2": 14,
            "atom3": 15,
            "atom4": 17,
            "delta_constant": 0.0,
            "minima": 2,
            "spring_constant": 0.07
        },
        {
            "atom1": 14,
            "atom2": 15,
            "atom3": 17,
            "atom4": 18,
            "delta_constant": 180.0,
            "minima": 2,
            "spring_constant": 2.5
        },
        {
            "atom1": 16,
            "atom2": 15,
            "atom3": 17,
            "atom4": 18,
            "delta_constant": 180.0,
            "minima": 2,
            "spring_constant": 2.5
        },
        {
            "atom1": 14,
            "atom2": 15,
            "atom3": 17,
            "atom4": 36,
            "delta_constant": 180.0,
            "minima": 2,
            "spring_constant": 2.5
        },
        {
            "atom1": 16,
            "atom2": 15,
            "atom3": 17,
            "atom4": 36,
            "delta_constant": 180.0,
            "minima": 2,
            "spring_constant": 2.5
        },
        {
            "atom1": 16,
            "atom2": 15,
            "atom3": 17,
            "atom4": 36,
            "delta_constant": 0.0,
            "minima": 1,
            "spring_constant": 2.0
        },
        {
            "atom1": 15,
            "atom2": 17,
            "atom3": 18,
            "atom4": 19,
            "delta_constant": 180.0,
            "minima": 4,
            "spring_constant": 0.5
        },
        {
            "atom1": 15,
            "atom2": 17,
            "atom3": 18,
            "atom4": 19,
            "delta_constant": 180.0,
            "minima": 3,
            "spring_constant": 0.15
        },
        {
            "atom1": 15,
            "atom2": 17,
            "atom3": 18,
            "atom4": 19,
            "delta_constant": 0.0,
            "minima": 1,
            "spring_constant": 0.53
        },
        {
            "atom1": 15,
            "atom2": 17,
            "atom3": 18,
            "atom4": 20,
            "delta_constant": 180.0,
            "minima": 4,
            "spring_constant": 0.5
        },
        {
            "atom1": 15,
            "atom2": 17,
            "atom3": 18,
            "atom4": 20,
            "delta_constant": 180.0,
            "minima": 3,
            "spring_constant": 0.15
        },
        {
            "atom1": 15,
            "atom2": 17,
            "atom3": 18,
            "atom4": 20,
            "delta_constant": 0.0,
            "minima": 1,
            "spring_constant": 0.53
        },
        {
            "atom1": 17,
            "atom2": 18,
            "atom3": 19,
            "atom4": 2,
            "delta_constant": 0.0,
            "minima": 3,
            "spring_constant": 0.156
        },
        {
            "atom1": 20,
            "atom2": 18,
            "atom3": 19,
            "atom4": 2,
            "delta_constant": 0.0,
            "minima": 3,
            "spring_constant": 0.18
        },
        {
            "atom1": 20,
            "atom2": 18,
            "atom3": 19,
            "atom4": 2,
            "delta_constant": 180.0,
            "minima": 2,
            "spring_constant": 0.25
        },
        {
            "atom1": 20,
            "atom2": 18,
            "atom3": 19,
            "atom4": 2,
            "delta_constant": 180.0,
            "minima": 1,
            "spring_constant": 0.2
        },
        {
            "atom1": 17,
            "atom2": 18,
            "atom3": 20,
            "atom4": 21,
            "delta_constant": 0.0,
            "minima": 3,
            "spring_constant": 0.156
        },
        {
            "atom1": 19,
            "atom2": 18,
            "atom3": 20,
            "atom4": 21,
            "delta_constant": 0.0,
            "minima": 3,
            "spring_constant": 0.18
        },
        {
            "atom1": 19,
            "atom2": 18,
            "atom3": 20,
            "atom4": 21,
            "delta_constant": 180.0,
            "minima": 2,
            "spring_constant": 0.25
        },
        {
            "atom1": 19,
            "atom2": 18,
            "atom3": 20,
            "atom4": 21,
            "delta_constant": 180.0,
            "minima": 1,
            "spring_constant": 0.2
        },
        {
            "atom1": 17,
            "atom2": 18,
            "atom3": 20,
            "atom4": 33,
            "delta_constant": 0.0,
            "minima": 3,
            "spring_constant": 0.156
        },
        {
            "atom1": 19,
            "atom2": 18,
            "atom3": 20,
            "atom4": 33,
            "delta_constant": 0.0,
            "minima": 3,
            "spring_constant": 0.156
        },
        {
            "atom1": 18,
            "atom2": 20,
            "atom3": 21,
            "atom4": 22,
            "delta_constant": 0.0,
            "minima": 3,
            "spring_constant": 0.156
        },
        {
            "atom1": 33,
            "atom2": 20,
            "atom3": 21,
            "atom4": 22,
            "delta_constant": 0.0,
            "minima": 3,
            "spring_constant": 0.156
        },
        {
            "atom1": 18,
            "atom2": 20,
            "atom3": 33,
            "atom4": 39,
            "delta_constant": 0.0,
            "minima": 3,
            "spring_constant": 0.16
        },
        {
            "atom1": 18,
            "atom2": 20,
            "atom3": 33,
            "atom4": 39,
            "delta_constant": 0.0,
            "minima": 1,
            "spring_constant": 0.25
        },
        {
            "atom1": 21,
            "atom2": 20,
            "atom3": 33,
            "atom4": 39,
            "delta_constant": 0.0,
            "minima": 3,
            "spring_constant": 0.16
        },
        {
            "atom1": 21,
            "atom2": 20,
            "atom3": 33,
            "atom4": 39,
            "delta_constant": 0.0,
            "minima": 1,
            "spring_constant": 0.25
        },
        {
            "atom1": 20,
            "atom2": 21,
            "atom3": 22,
            "atom4": 23,
            "delta_constant": 0.0,
            "minima": 3,
            "spring_constant": 0.156
        },
        {
            "atom1": 20,
            "atom2": 21,
            "atom3": 22,
            "atom4": 37,
            "delta_constant": 0.0,
            "minima": 3,
            "spring_constant": 0.156
        },
        {
            "atom1": 20,
            "atom2": 21,
            "atom3": 22,
            "atom4": 38,
            "delta_constant": 0.0,
            "minima": 3,
            "spring_constant": 0.156
        },
        {
            "atom1": 21,
            "atom2": 22,
            "atom3": 23,
            "atom4": 24,
            "delta_constant": 0.0,
            "minima": 3,
            "spring_constant": 0.156
        },
        {
            "atom1": 37,
            "atom2": 22,
            "atom3": 23,
            "atom4": 24,
            "delta_constant": 0.0,
            "minima": 3,
            "spring_constant": 0.156
        },
        {
            "atom1": 38,
            "atom2": 22,
            "atom3": 23,
            "atom4": 24,
            "delta_constant": 0.0,
            "minima": 3,
            "spring_constant": 0.156
        },
        {
            "atom1": 23,
            "atom2": 24,
            "atom3": 25,
            "atom4": 26,
            "delta_constant": 180.0,
            "minima": 2,
            "spring_constant": 3.625
        },
        {
            "atom1": 29,
            "atom2": 24,
            "atom3": 25,
            "atom4": 26,
            "delta_constant": 180.0,
            "minima": 2,
            "spring_constant": 3.625
        },
        {
            "atom1": 23,
            "atom2": 24,
            "atom3": 29,
            "atom4": 28,
            "delta_constant": 180.0,
            "minima": 2,
            "spring_constant": 3.625
        },
        {
            "atom1": 25,
            "atom2": 24,
            "atom3": 29,
            "atom4": 28,
            "delta_constant": 180.0,
            "minima": 2,
            "spring_constant": 3.625
        },
        {
            "atom1": 24,
            "atom2": 25,
            "atom3": 26,
            "atom4": 27,
            "delta_constant": 180.0,
            "minima": 2,
            "spring_constant": 3.625
        },
        {
            "atom1": 25,
            "atom2": 26,
            "atom3": 27,
            "atom4": 28,
            "delta_constant": 180.0,
            "minima": 2,
            "spring_constant": 3.625
        },
        {
            "atom1": 26,
            "atom2": 27,
            "atom3": 28,
            "atom4": 29,
            "delta_constant": 180.0,
            "minima": 2,
            "spring_constant": 3.625
        },
        {
            "atom1": 26,
            "atom2": 27,
            "atom3": 28,
            "atom4": 30,
            "delta_constant": 180.0,
            "minima": 2,
            "spring_constant": 3.625
        },
        {
            "atom1": 27,
            "atom2": 28,
            "atom3": 29,
            "atom4": 24,
            "delta_constant": 180.0,
            "minima": 2,
            "spring_constant": 3.625
        },
        {
            "atom1": 30,
            "atom2": 28,
            "atom3": 29,
            "atom4": 24,
            "delta_constant": 180.0,
            "minima": 2,
            "spring_constant": 3.625
        }
    ],
    "version": 1
}